R Notebook
…
print(query_1)

# A tibble: 2 x 2
     card     num
  <int64> <int64>
1      14    2500
2      13    5000

print(query_2)

# A tibble: 52 x 2
    anno     num
   <dbl> <int64>
 1  1972    3256
 2  2001    3163
 3  2004    3187
 4  1993    3194
 5  1975    3222
 6  1978    3076
 7  1981    3126
 8  1987    3220
 9  2003    3209
10  2021    1267
#  with 42 more rows

print(query_3)

# A tibble: 7,500 x 1
   luogoresidenza                                                        
   <chr>                                                                 
 1 Viale Foconi 70 Appartamento 30 - Piacentini terme, 53222 Ravenna (RE)
 2 Borgo Gabrieli 070 Piano 2 - Borgo Dionigi a mare, 39367 Brescia (BT) 
 3 Vicolo Guidotti 94 - Sesto Veronica, 78605 Como (MN)                  
 4 Stretto Giacomo 9 - Sesto Mattia, 32627 Novara (OT)                   
 5 Vicolo Leopardi 5 - Verdi veneto, 22721 Palermo (CI)                  
 6 Canale Gatto 41 - Gussoni umbro, 20170 Brindisi (KR)                  
 7 Vicolo Desio 63 - Panicucci salentino, 63816 Sondrio (CB)             
 8 Via Berr 12 Appartamento 73 - Canetta veneto, 68819 Avellino (RO)    
 9 Rotonda Aulenti 97 - Sesto Biagio laziale, 71882 Udine (GE)           
10 Via Civaschi 30 Appartamento 03 - Fabio a mare, 40237 Sassari (VT)    
#  with 7,490 more rows

print(query_4)

# A tibble: 52 x 2
    numero  year
   <int64> <dbl>
 1     223  2002
 2     224  1996
 3     246  1992
 4     238  2017
 5     239  2009
 6     222  2007
 7     245  1976
 8     252  1977
 9     241  1972
10     257  1983
#  with 42 more rows

print(query_5)

# A tibble: 117 x 2
       num  year
   <int64> <dbl>
 1      63  1984
 2      71  1922
 3      63  2002
 4      61  1996
 5      65  1958
 6      74  1992
 7      54  1928
 8      83  1911
 9      70  2019
10      54  1946
#  with 107 more rows

print(query_6)

# A tibble: 75 x 2
   autista          numero_corse
   <chr>                 <int64>
 1 AKQWGB58B38P612E         2142
 2 APKEEH38X06B558B         2224
 3 BAOREQ52U43U640F         2248
 4 CHFFPG77W70J677L         2246
 5 CJCESO33Q48J666D         2196
 6 CTJHUI56N25L662L         2203
 7 DFQGSS00F33A928Q         2133
 8 DNNBWE57Z07A427Z         2228
 9 DTAOJP19K08Q957K         2191
10 DUQBHC91M91X558G         2142
#  with 65 more rows
…
